[
  {
    "definitions_word_en": "occurring, found, or done often; prevalent.",
    "id_lesson": "common_c",
    "definitions_ex_en": "salt and pepper are the two most common seasonings",
    "definitions_ex_vn": "muối và hạt tiêu là hai gia vị phổ biến nhất",
    "definitions_type_word": "adjective"
  },
  {
    "definitions_word_en": "shared by, coming from, or done by more than one.",
    "id_lesson": "common_c",
    "definitions_ex_en": "the two republics\u0027 common border",
    "definitions_ex_vn": "hai biên giới chung của cộng hòa",
    "definitions_type_word": "adjective"
  },
  {
    "definitions_word_en": "(in Latin and certain other languages) of or denoting a gender of nouns that are conventionally regarded as masculine or feminine, contrasting with neuter.",
    "id_lesson": "common_c",
    "definitions_ex_en": "",
    "definitions_ex_vn": "",
    "definitions_type_word": "adjective"
  },
  {
    "definitions_word_en": "(of a syllable) able to be either short or long.",
    "id_lesson": "common_c",
    "definitions_ex_en": "",
    "definitions_ex_vn": "",
    "definitions_type_word": "adjective"
  },
  {
    "definitions_word_en": "(of a crime) of relatively minor importance.",
    "id_lesson": "common_c",
    "definitions_ex_en": "common assault",
    "definitions_ex_vn": "Tấn công chung",
    "definitions_type_word": "adjective"
  },
  {
    "definitions_word_en": "a piece of open land for public use, especially in a village or town.",
    "id_lesson": "common_c",
    "definitions_ex_en": "we spent the morning tramping over the common looking for flowers",
    "definitions_ex_vn": "Chúng tôi đã dành buổi sáng để tìm kiếm những bông hoa chung",
    "definitions_type_word": "noun"
  },
  {
    "definitions_word_en": "(in the Christian Church) a form of service used for each of a group of occasions.",
    "id_lesson": "common_c",
    "definitions_ex_en": "",
    "definitions_ex_vn": "",
    "definitions_type_word": "noun"
  }
]