[
  {
    "definitions_word_en": "a moral or legal obligation; a responsibility.",
    "id_lesson": "duty_d",
    "definitions_ex_en": "it\u0027s my duty to uphold the law",
    "definitions_ex_vn": "Đó là nhiệm vụ của tôi để duy trì luật pháp",
    "definitions_type_word": "noun"
  },
  {
    "definitions_word_en": "a task or action that someone is required to perform.",
    "id_lesson": "duty_d",
    "definitions_ex_en": "the queen\u0027s official duties",
    "definitions_ex_vn": "nhiệm vụ chính thức của nữ hoàng",
    "definitions_type_word": "noun"
  },
  {
    "definitions_word_en": "a payment levied on the import, export, manufacture, or sale of goods.",
    "id_lesson": "duty_d",
    "definitions_ex_en": "a 6 percent duty on imports",
    "definitions_ex_vn": "một nhiệm vụ 6 phần trăm đối với nhập khẩu",
    "definitions_type_word": "noun"
  },
  {
    "definitions_word_en": "the measure of an engine\u0027s effectiveness in units of work done per unit of fuel.",
    "id_lesson": "duty_d",
    "definitions_ex_en": "",
    "definitions_ex_vn": "",
    "definitions_type_word": "noun"
  }
]