[
  {
    "definitions_word_en": "a wide way leading from one place to another, especially one with a specially prepared surface which vehicles can use.",
    "id_lesson": "road_r",
    "definitions_ex_en": "a country road",
    "definitions_ex_vn": "một con đường quê",
    "definitions_type_word": "noun"
  },
  {
    "definitions_word_en": "a series of events or a course of action that will lead to a particular outcome.",
    "id_lesson": "road_r",
    "definitions_ex_en": "he\u0027s well on the road to recovery",
    "definitions_ex_vn": "Anh ấy đang trên đường phục hồi",
    "definitions_type_word": "noun"
  },
  {
    "definitions_word_en": "(often in place names) another term for roadstead.",
    "id_lesson": "road_r",
    "definitions_ex_en": "Boston Roads",
    "definitions_ex_vn": "Đường Boston",
    "definitions_type_word": "noun"
  }
]