[
  {
    "definitions_word_en": "of considerable or relatively great size, extent, or capacity.",
    "id_lesson": "large_l",
    "definitions_ex_en": "add a large clove of garlic",
    "definitions_ex_vn": "Thêm một tép tỏi lớn",
    "definitions_type_word": "adjective"
  },
  {
    "definitions_word_en": "of wide range or scope.",
    "id_lesson": "large_l",
    "definitions_ex_en": "we can afford to take a larger view of the situation",
    "definitions_ex_vn": "Chúng tôi có thể đủ khả năng để có một cái nhìn lớn hơn về tình huống",
    "definitions_type_word": "adjective"
  },
  {
    "definitions_word_en": "another term for free (sense 8 of the adjective).",
    "id_lesson": "large_l",
    "definitions_ex_en": "",
    "definitions_ex_vn": "",
    "definitions_type_word": "adjective"
  },
  {
    "definitions_word_en": "another term for free (sense 2 of the adverb).",
    "id_lesson": "large_l",
    "definitions_ex_en": "",
    "definitions_ex_vn": "",
    "definitions_type_word": "adverb"
  }
]