[
  {
    "definitions_word_en": "a thing that is granted, especially in response to demands; a thing conceded.",
    "id_lesson": "concession_c",
    "definitions_ex_en": "the strikers returned to work having won some concessions",
    "definitions_ex_vn": "Các tiền đạo trở lại làm việc đã giành được một số nhượng bộ",
    "definitions_type_word": "noun"
  },
  {
    "definitions_word_en": "a preferential allowance or rate given by an organization.",
    "id_lesson": "concession_c",
    "definitions_ex_en": "tax concessions",
    "definitions_ex_vn": "nhượng bộ thuế",
    "definitions_type_word": "noun"
  },
  {
    "definitions_word_en": "the right to use land or other property for a specified purpose, granted by a government, company, or other controlling body.",
    "id_lesson": "concession_c",
    "definitions_ex_en": "new logging concessions",
    "definitions_ex_vn": "nhượng bộ ghi nhật ký mới",
    "definitions_type_word": "noun"
  }
]