[
  {
    "definitions_word_en": "the process of increasing in physical size.",
    "id_lesson": "growth_g",
    "definitions_ex_en": "the upward growth of plants",
    "definitions_ex_vn": "sự phát triển tăng của thực vật",
    "definitions_type_word": "noun"
  },
  {
    "definitions_word_en": "something that has grown or is growing.",
    "id_lesson": "growth_g",
    "definitions_ex_en": "a day\u0027s growth of unshaven stubble on his chin",
    "definitions_ex_vn": "sự phát triển của một ngày của unshaven stuble trên cằm của mình",
    "definitions_type_word": "noun"
  },
  {
    "definitions_word_en": "a vineyard or crop of grapes of a specified classification of quality, or a wine from it.",
    "id_lesson": "growth_g",
    "definitions_ex_en": "all growths within the legally delimited Champagne zone are classified",
    "definitions_ex_vn": "Tất cả sự tăng trưởng trong khu vực Champagne được phân cách hợp pháp được phân loại",
    "definitions_type_word": "noun"
  }
]