[
  {
    "definitions_word_en": "in a private way, manner, or capacity.",
    "id_lesson": "privately_p",
    "definitions_ex_en": "I must insist we speak privately",
    "definitions_ex_vn": "Tôi phải nhấn mạnh chúng tôi nói riêng",
    "definitions_type_word": "adverb"
  }
]