[
  {
    "definitions_word_en": "keep or restrict someone or something within certain limits of (space, scope, quantity, or time).",
    "id_lesson": "confine_c",
    "definitions_ex_en": "you\u0027ve confined yourself to what you know",
    "definitions_ex_vn": "Bạn đã giới thiệu bản thân mình với những gì bạn biết",
    "definitions_type_word": "verb"
  },
  {
    "definitions_word_en": "the borders or boundaries of a place, especially with regard to their restricting freedom of movement.",
    "id_lesson": "confine_c",
    "definitions_ex_en": "they were cramped within the confines of a little cabin",
    "definitions_ex_vn": "Chúng bị chật chội trong giới hạn của một căn cabin nhỏ",
    "definitions_type_word": "noun"
  }
]