[
  {
    "definitions_word_en": "someone or something having power, authority, or influence; a master or ruler.",
    "id_lesson": "lord_l",
    "definitions_ex_en": "lord of the sea",
    "definitions_ex_vn": "chúa tể của biển",
    "definitions_type_word": "noun"
  },
  {
    "definitions_word_en": "used in exclamations expressing surprise or worry, or for emphasis.",
    "id_lesson": "lord_l",
    "definitions_ex_en": "Lord, I\u0027m cold!",
    "definitions_ex_vn": "Lạy Chúa, tôi lạnh!",
    "definitions_type_word": "exclamation"
  },
  {
    "definitions_word_en": "act in a superior and domineering manner toward (someone).",
    "id_lesson": "lord_l",
    "definitions_ex_en": "when we were at school, you used to lord it over us",
    "definitions_ex_vn": "Khi chúng ta ở trường, bạn đã từng nói với Chúa trên chúng ta",
    "definitions_type_word": "verb"
  },
  {
    "definitions_word_en": "confer the title of Lord upon.",
    "id_lesson": "lord_l",
    "definitions_ex_en": "Sir Cadwallader Pleadwell has been lately lorded",
    "definitions_ex_vn": "Sir Cadwallader Pleadwell gần đây đã được chúa lạc",
    "definitions_type_word": "verb"
  }
]