[
  {
    "definitions_word_en": "act or conduct oneself in a specified way, especially toward others.",
    "id_lesson": "behave_b",
    "definitions_ex_en": "he always behaved like a gentleman",
    "definitions_ex_vn": "anh ấy luôn cư xử như một quý ông",
    "definitions_type_word": "verb"
  },
  {
    "definitions_word_en": "conduct oneself in accordance with the accepted norms of a society or group.",
    "id_lesson": "behave_b",
    "definitions_ex_en": "they were expected to behave themselves",
    "definitions_ex_vn": "họ dự kiến sẽ cư xử",
    "definitions_type_word": "verb"
  }
]