[
  {
    "definitions_word_en": "(especially of wrongdoing) very obvious and unacceptable; blatant.",
    "id_lesson": "gross_g",
    "definitions_ex_en": "gross human rights abuses",
    "definitions_ex_vn": "lạm dụng nhân quyền",
    "definitions_type_word": "adjective"
  },
  {
    "definitions_word_en": "(of income, profit, or interest) without deduction of tax or other contributions; total.",
    "id_lesson": "gross_g",
    "definitions_ex_en": "the gross amount of the gift was $1,000",
    "definitions_ex_vn": "Tổng số tiền của món quà là $ 1.000",
    "definitions_type_word": "adjective"
  },
  {
    "definitions_word_en": "very rude or coarse; vulgar.",
    "id_lesson": "gross_g",
    "definitions_ex_en": "",
    "definitions_ex_vn": "",
    "definitions_type_word": "adjective"
  },
  {
    "definitions_word_en": "general or large-scale; not fine or detailed.",
    "id_lesson": "gross_g",
    "definitions_ex_en": "at the gross anatomical level",
    "definitions_ex_vn": "Ở cấp độ giải phẫu",
    "definitions_type_word": "adjective"
  },
  {
    "definitions_word_en": "without tax or other contributions having been deducted.",
    "id_lesson": "gross_g",
    "definitions_ex_en": "",
    "definitions_ex_vn": "",
    "definitions_type_word": "adverb"
  },
  {
    "definitions_word_en": "produce or earn (an amount of money) as gross profit or income.",
    "id_lesson": "gross_g",
    "definitions_ex_en": "the film went on to gross $8 million in the U.S",
    "definitions_ex_vn": "Bộ phim đã đến tổng doanh thu 8 triệu đô la trong U.S",
    "definitions_type_word": "verb"
  },
  {
    "definitions_word_en": "an amount equal to twelve dozen; 144.",
    "id_lesson": "gross_g",
    "definitions_ex_en": "fifty-five gross of tins of processed milk",
    "definitions_ex_vn": "Năm mươi lăm thiếc sữa chế biến",
    "definitions_type_word": "noun"
  },
  {
    "definitions_word_en": "a gross profit or income.",
    "id_lesson": "gross_g",
    "definitions_ex_en": "the box-office grosses mounted",
    "definitions_ex_vn": "tổng doanh thu văn phòng hộp được gắn",
    "definitions_type_word": "noun"
  }
]