[
  {
    "definitions_word_en": "a flat paper container with a sealable flap, used to enclose a letter or document.",
    "id_lesson": "envelope_e",
    "definitions_ex_en": "",
    "definitions_ex_vn": "",
    "definitions_type_word": "noun"
  },
  {
    "definitions_word_en": "a covering or containing structure or layer.",
    "id_lesson": "envelope_e",
    "definitions_ex_en": "the external envelope of the swimming pool",
    "definitions_ex_vn": "phong bì bên ngoài của bể bơi",
    "definitions_type_word": "noun"
  }
]