[
  {
    "definitions_word_en": "causing someone to feel deeply hurt, upset, or angry.",
    "id_lesson": "offensive_o",
    "definitions_ex_en": "the allegations made are deeply offensive to us",
    "definitions_ex_vn": "Các cáo buộc đã gây khó chịu sâu sắc cho chúng tôi",
    "definitions_type_word": "adjective"
  },
  {
    "definitions_word_en": "actively aggressive; attacking.",
    "id_lesson": "offensive_o",
    "definitions_ex_en": "offensive operations against the insurgents",
    "definitions_ex_vn": "Hoạt động tấn công chống lại quân nổi dậy",
    "definitions_type_word": "adjective"
  },
  {
    "definitions_word_en": "an attacking military campaign.",
    "id_lesson": "offensive_o",
    "definitions_ex_en": "an impending military offensive against the guerrillas",
    "definitions_ex_vn": "một cuộc tấn công quân sự sắp xảy ra chống lại du kích",
    "definitions_type_word": "noun"
  }
]