[
  {
    "definitions_word_en": "using or involving physical force intended to hurt, damage, or kill someone or something.",
    "id_lesson": "violent_v",
    "definitions_ex_en": "a violent confrontation with riot police",
    "definitions_ex_vn": "một cuộc đối đầu dữ dội với cảnh sát bạo loạn",
    "definitions_type_word": "adjective"
  }
]