[
  {
    "definitions_word_en": "the state of wanting to know or learn about something or someone.",
    "id_lesson": "interest_i",
    "definitions_ex_en": "she looked about her with interest",
    "definitions_ex_vn": "Cô ấy nhìn về cô ấy với sự quan tâm",
    "definitions_type_word": "noun"
  },
  {
    "definitions_word_en": "money paid regularly at a particular rate for the use of money lent, or for delaying the repayment of a debt.",
    "id_lesson": "interest_i",
    "definitions_ex_en": "the monthly rate of interest",
    "definitions_ex_vn": "tỷ lệ lãi suất hàng tháng",
    "definitions_type_word": "noun"
  },
  {
    "definitions_word_en": "the advantage or benefit of a person or group.",
    "id_lesson": "interest_i",
    "definitions_ex_en": "the merger is not contrary to the public interest",
    "definitions_ex_vn": "Việc sáp nhập không trái với lợi ích công cộng",
    "definitions_type_word": "noun"
  },
  {
    "definitions_word_en": "a stake, share, or involvement in an undertaking, especially a financial one.",
    "id_lesson": "interest_i",
    "definitions_ex_en": "holders of voting rights must disclose their interests",
    "definitions_ex_vn": "Người có quyền bỏ phiếu phải tiết lộ sở thích của họ",
    "definitions_type_word": "noun"
  },
  {
    "definitions_word_en": "a group or organization having a specified common concern, especially in politics or business.",
    "id_lesson": "interest_i",
    "definitions_ex_en": "the regulation of national interests in India, Brazil, and Africa",
    "definitions_ex_vn": "Quy định về lợi ích quốc gia ở Ấn Độ, Brazil và Châu Phi",
    "definitions_type_word": "noun"
  },
  {
    "definitions_word_en": "excite the curiosity or attention of (someone).",
    "id_lesson": "interest_i",
    "definitions_ex_en": "I thought the book might interest Eric",
    "definitions_ex_vn": "Tôi nghĩ cuốn sách có thể quan tâm Eric",
    "definitions_type_word": "verb"
  }
]